7_stageMonitor/simulation/qsim/7_stageMonitor.msim.vcd
$comment
	File created using the following command:
		vcd file 7_stageMonitor.msim.vcd -direction
$end
$date
	Sun Mar 03 17:16:28 2024
$end
$version
	ModelSim Version 10.1d
$end
$timescale
	1ps
$end
$scope module seven_stage_monitor_vlg_vec_tst $end
$var reg 4 ! num [3:0] $end
$var wire 1 " out [6] $end
$var wire 1 # out [5] $end
$var wire 1 $ out [4] $end
$var wire 1 % out [3] $end
$var wire 1 & out [2] $end
$var wire 1 ' out [1] $end
$var wire 1 ( out [0] $end
$var wire 1 ) sampler $end
$scope module i1 $end
$var wire 1 * gnd $end
$var wire 1 + vcc $end
$var wire 1 , unknown $end
$var tri1 1 - devclrn $end
$var tri1 1 . devpor $end
$var tri1 1 / devoe $end
$var wire 1 0 out[0]~output_o $end
$var wire 1 1 out[1]~output_o $end
$var wire 1 2 out[2]~output_o $end
$var wire 1 3 out[3]~output_o $end
$var wire 1 4 out[4]~output_o $end
$var wire 1 5 out[5]~output_o $end
$var wire 1 6 out[6]~output_o $end
$var wire 1 7 num[0]~input_o $end
$var wire 1 8 num[1]~input_o $end
$var wire 1 9 num[3]~input_o $end
$var wire 1 : num[2]~input_o $end
$var wire 1 ; out[0]~0_combout $end
$var wire 1 < out[1]~1_combout $end
$var wire 1 = out[2]~2_combout $end
$var wire 1 > out[3]~3_combout $end
$var wire 1 ? out[4]~4_combout $end
$var wire 1 @ out[5]~5_combout $end
$var wire 1 A out[6]~6_combout $end
$upscope $end
$upscope $end
$enddefinitions $end
#0
$dumpvars
b0 !
1(
1'
1&
1%
1$
1#
0"
x)
0*
1+
x,
1-
1.
1/
10
11
12
13
14
15
06
07
08
09
0:
1;
1<
1=
0>
0?
1@
0A
$end
#40000
b1 !
17
0)
1?
1>
0@
0;
04
03
05
00
0$
0%
0#
0(
#80000
b11 !
b10 !
07
18
1)
0?
0>
1A
0=
1;
14
13
16
02
10
1$
1%
1"
0&
1(
#120000
b11 !
17
0)
1?
1=
04
12
0$
1&
#160000
b111 !
b101 !
b100 !
07
08
1:
1)
1>
1@
0;
03
15
00
0%
1#
0(
#200000
b101 !
17
0)
0>
0<
1;
13
01
10
1%
0'
1(
#240000
b111 !
b110 !
07
18
1)
0?
14
1$
#280000
b111 !
17
0)
1?
1>
0A
0@
1<
04
03
06
05
11
0$
0%
0"
0#
1'
#320000
b1111 !
b1011 !
b1001 !
b1000 !
07
08
0:
19
1)
0?
0>
1A
1@
14
13
16
15
1$
1%
1"
1#
#360000
b1001 !
17
0)
1?
04
0$
#400000
b1011 !
b1010 !
07
18
1)
0?
1>
14
03
1$
0%
#440000
b1011 !
17
0)
0>
0<
0;
13
01
00
1%
0'
0(
#480000
b1111 !
b1101 !
b1100 !
07
08
1:
1)
0A
0=
1;
06
02
10
0"
0&
1(
#520000
b1101 !
17
0)
1A
0@
1=
1<
0;
16
05
12
11
00
1"
0#
1&
1'
0(
#560000
b1111 !
b1110 !
07
18
1)
1@
0=
0<
1;
15
02
01
10
1#
0&
0'
1(
#600000
b1111 !
17
0)
1>
03
0%
#640000
b111 !
b11 !
b1 !
b0 !
07
08
0:
09
1)
0>
0A
1=
1<
13
06
12
11
1%
0"
1&
1'
