8to3_priority_encoder/simulation/qsim/8to3_priority_encoder.msim.vcd
$comment
	File created using the following command:
		vcd file 8to3_priority_encoder.msim.vcd -direction
$end
$date
	Sat Mar 09 15:06:44 2024
$end
$version
	ModelSim Version 10.1d
$end
$timescale
	1ps
$end
$scope module priority_8bit_encoder_vlg_vec_tst $end
$var reg 8 ! in [7:0] $end
$var wire 1 " out [2] $end
$var wire 1 # out [1] $end
$var wire 1 $ out [0] $end
$var wire 1 % valid $end
$var wire 1 & sampler $end
$scope module i1 $end
$var wire 1 ' gnd $end
$var wire 1 ( vcc $end
$var wire 1 ) unknown $end
$var tri1 1 * devclrn $end
$var tri1 1 + devpor $end
$var tri1 1 , devoe $end
$var wire 1 - out[0]~output_o $end
$var wire 1 . out[1]~output_o $end
$var wire 1 / out[2]~output_o $end
$var wire 1 0 valid~output_o $end
$var wire 1 1 in[5]~input_o $end
$var wire 1 2 in[2]~input_o $end
$var wire 1 3 in[4]~input_o $end
$var wire 1 4 in[1]~input_o $end
$var wire 1 5 in[3]~input_o $end
$var wire 1 6 out~0_combout $end
$var wire 1 7 in[7]~input_o $end
$var wire 1 8 in[6]~input_o $end
$var wire 1 9 out~1_combout $end
$var wire 1 : out~2_combout $end
$var wire 1 ; out~3_combout $end
$var wire 1 < valid~0_combout $end
$var wire 1 = in[0]~input_o $end
$var wire 1 > valid~1_combout $end
$var wire 1 ? valid~2_combout $end
$upscope $end
$upscope $end
$enddefinitions $end
#0
$dumpvars
b0 !
0$
0#
0"
0%
x&
0'
1(
x)
1*
1+
1,
0-
0.
0/
00
01
02
03
04
05
06
07
08
09
0:
0;
1<
0=
0>
0?
$end
#40000
b1 !
1=
0&
1>
1?
10
1%
#80000
b11 !
b10 !
0=
14
1&
16
19
1-
1$
#120000
b110 !
b100 !
04
12
0&
06
1:
09
1;
0-
1.
0$
1#
#160000
b1100 !
b1000 !
02
15
1&
16
19
1-
1$
#200000
b11000 !
b10000 !
05
13
0&
0>
0:
06
0<
1/
1"
0;
09
0.
0-
0#
0$
#240000
b110000 !
b100000 !
03
11
1&
19
1-
1$
#280000
b1100000 !
b1000000 !
01
18
0&
09
1;
0-
1.
0$
1#
#320000
b11000000 !
b10000000 !
08
17
1&
19
1-
1$
#360000
b0 !
07
0&
1<
0;
09
0/
0.
0-
0"
0#
0$
0?
00
0%
